\relax 
\catcode `"\active 
\citation{ABNT:NBR}
\citation{VELLOSOLOPES:2010}
\select@language{brazil}
\@writefile{toc}{\select@language{brazil}}
\@writefile{lof}{\select@language{brazil}}
\@writefile{lot}{\select@language{brazil}}
\@writefile{toc}{\contentsline {section}{\numberline {I}Introdu\IeC {\c c}\IeC {\~a}o}{1}}
\@writefile{toc}{\contentsline {subsection}{\numberline {\unhbox \voidb@x \hbox {I-A}}Organiza\IeC {\c c}\IeC {\~a}o do Trabalho}{1}}
\@writefile{toc}{\contentsline {section}{\numberline {II}Funda\IeC {\c c}\IeC {\~o}es Profundas}{1}}
\newlabel{equacaoCapacidadeTotalDeCarga}{{1}{1}}
\citation{DECOURTCINTRA:1998}
\citation{DECOURTCINTRA:1998}
\citation{DECOURTCINTRA:1998}
\citation{DECOURTCINTRA:1998}
\@writefile{toc}{\contentsline {subsection}{\numberline {\unhbox \voidb@x \hbox {II-A}}Tipos de Estacas}{2}}
\@writefile{toc}{\contentsline {subsection}{\numberline {\unhbox \voidb@x \hbox {II-B}}Ensaio \textit  {Standard Penetration Test} (SPT)}{2}}
\@writefile{toc}{\contentsline {section}{\numberline {III}M\IeC {\'e}todos de C\IeC {\'a}lculo}{2}}
\@writefile{toc}{\contentsline {subsection}{\numberline {\unhbox \voidb@x \hbox {III-A}}M\IeC {\'e}todo de Aoki-Velloso}{2}}
\newlabel{resistenciaDePontaAoki}{{2}{2}}
\newlabel{resistenciaLateralAoki}{{3}{2}}
\@writefile{lot}{\contentsline {table}{\numberline {I}{\ignorespaces Valores dos coeficientes k e $\alpha _i$~\cite  {DECOURTCINTRA:1998}}}{2}}
\newlabel{tabelaDeTipoDeSolo}{{I}{2}}
\@writefile{toc}{\contentsline {subsection}{\numberline {\unhbox \voidb@x \hbox {III-B}}M\IeC {\'e}todo D\IeC {\'e}court-Quaresma}{2}}
\newlabel{resistenciaDePontaDecourt}{{4}{2}}
\citation{DECOURTCINTRA:1998}
\citation{DECOURTCINTRA:1998}
\citation{DECOURTCINTRA:1998}
\citation{IANSOMMERVILLE:2007}
\citation{NOVOLIVRO}
\citation{WASZLAVICK:2010}
\citation{LARMAN}
\citation{PRESSMANN:2009}
\citation{PRESSMANN:2009}
\@writefile{lot}{\contentsline {table}{\numberline {II}{\ignorespaces Valores dos coeficientes $F_1$ e $F_2$~\cite  {DECOURTCINTRA:1998}}}{3}}
\newlabel{tabelaF1eF2}{{II}{3}}
\newlabel{equacaoResistenciaLateralDecourt}{{5}{3}}
\@writefile{lot}{\contentsline {table}{\numberline {III}{\ignorespaces Valor de C para o m\IeC {\'e}todo D\IeC {\'e}court-Quaresma~\cite  {DECOURTCINTRA:1998}}}{3}}
\newlabel{tabelaK}{{III}{3}}
\@writefile{lot}{\contentsline {table}{\numberline {IV}{\ignorespaces Valores de $\alpha $ e $\beta $ para o m\IeC {\'e}todo D\IeC {\'e}court-Quaresma~\cite  {DECOURTCINTRA:1998}}}{3}}
\newlabel{tabelaAlfaEBeta}{{IV}{3}}
\@writefile{toc}{\contentsline {section}{\numberline {IV}Materiais e M\IeC {\'e}todos}{3}}
\@writefile{toc}{\contentsline {subsection}{\numberline {\unhbox \voidb@x \hbox {IV-A}}An\IeC {\'a}lise do Problema}{3}}
\@writefile{toc}{\contentsline {subsection}{\numberline {\unhbox \voidb@x \hbox {IV-B}}Projeto da Solu\IeC {\c c}\IeC {\~a}o}{3}}
\citation{GAMA}
\citation{GAMA}
\citation{GAMA}
\@writefile{lof}{\contentsline {figure}{\numberline {1}{\ignorespaces Diagrama de casos de uso.}}{4}}
\newlabel{diagramaDeCasosDeUso}{{1}{4}}
\@writefile{lof}{\contentsline {figure}{\numberline {2}{\ignorespaces Modelo de dom\IeC {\'\i }nio gerado nas atividades de an\IeC {\'a}lise.}}{4}}
\newlabel{imagemModeloDeDominio}{{2}{4}}
\@writefile{lof}{\contentsline {figure}{\numberline {3}{\ignorespaces Diagrama de atividades.}}{4}}
\newlabel{atividadesRealizadasPeloUsuario}{{3}{4}}
\@writefile{lof}{\contentsline {figure}{\numberline {4}{\ignorespaces Diagrama da arquitetura da ferramenta.}}{4}}
\newlabel{imagemDiagramaDeArquitetura}{{4}{4}}
\citation{DEITELCOMOPROGRAMAR}
\citation{LIVRODETESTE}
\@writefile{toc}{\contentsline {subsection}{\numberline {\unhbox \voidb@x \hbox {IV-C}}Implementa\IeC {\c c}\IeC {\~a}o de C\IeC {\'o}digo-fonte}{5}}
\@writefile{toc}{\contentsline {subsection}{\numberline {\unhbox \voidb@x \hbox {IV-D}}Testes de Software}{5}}
\@writefile{toc}{\contentsline {section}{\numberline {V}Resultados}{5}}
\@writefile{toc}{\contentsline {subsection}{\numberline {\unhbox \voidb@x \hbox {V-A}}Ferramenta de Apoio ao Projeto de Funda\IeC {\c c}\IeC {\~o}es Profundas}{5}}
\@writefile{lof}{\contentsline {figure}{\numberline {5}{\ignorespaces Tela da primeira etapa de projeto.}}{5}}
\newlabel{imagemTelaIdentificacao}{{5}{5}}
\@writefile{lof}{\contentsline {figure}{\numberline {6}{\ignorespaces Tela da segunda etapa de projeto.}}{5}}
\newlabel{telaDeProfundidadeMaxima}{{6}{5}}
\@writefile{lof}{\contentsline {figure}{\numberline {7}{\ignorespaces Tela da terceira etapa de projeto.}}{6}}
\newlabel{telaDeTIposDeSolo}{{7}{6}}
\@writefile{lof}{\contentsline {figure}{\numberline {8}{\ignorespaces Tela da terceira etapa de projeto.}}{6}}
\newlabel{telaEscolhaDeEstaca}{{8}{6}}
\@writefile{toc}{\contentsline {subsection}{\numberline {\unhbox \voidb@x \hbox {V-B}}Testes de Caixa-preta}{6}}
\@writefile{lof}{\contentsline {figure}{\numberline {9}{\ignorespaces Resultados dos testes unit\IeC {\'a}rios.}}{6}}
\newlabel{imagemDeGrafio}{{9}{6}}
\citation{referenciaNova14}
\bibcite{azeredoEdificioAteSuaCobertura}{1}
\bibcite{ABNT:NBR}{2}
\bibcite{VELLOSOLOPES:2010}{3}
\bibcite{ABNT:NBR2}{4}
\bibcite{DECOURTCINTRA:1998}{5}
\bibcite{WASZLAVICK:2010}{6}
\bibcite{PRESSMANN:2009}{7}
\bibcite{IANSOMMERVILLE:2007}{8}
\bibcite{LIVRODETESTE}{9}
\bibcite{GAMA}{10}
\bibcite{DEITELCOMOPROGRAMAR}{11}
\bibcite{LARMAN}{12}
\bibcite{NOVOLIVRO}{13}
\bibcite{RefNoVA1:2}{14}
\bibcite{referenciaNova14}{15}
\@writefile{lot}{\contentsline {table}{\numberline {V}{\ignorespaces An\IeC {\'a}lise de cobertura de classes alvo}}{7}}
\newlabel{tabelaDeAnaliseDeCobertura}{{V}{7}}
\@writefile{toc}{\contentsline {section}{\numberline {VI}Considera\IeC {\c c}\IeC {\~o}es Finais}{7}}
\@writefile{toc}{\contentsline {subsection}{\numberline {\unhbox \voidb@x \hbox {VI-A}}Trabalhos Futuros}{7}}
\@writefile{lof}{\contentsline {figure}{\numberline {10}{\ignorespaces Diagrama de casos de uso do novo m\IeC {\'o}dulo.}}{7}}
\newlabel{diagramaDeCasoDeUsoTrabalhoFuturo}{{10}{7}}
\@writefile{toc}{\contentsline {section}{Refer\^encias}{7}}
\newlabel{azeredo}{{1}{7}}
\newlabel{planilhaDeCalculo}{{15}{7}}
