\beamer@endinputifotherversion {3.33pt}
\select@language {brazilian}
\beamer@sectionintoc {1}{Introdu\IeC {\c c}\IeC {\~a}o}{3}{0}{1}
\beamer@sectionintoc {2}{Atividades Desenvolvidas}{6}{0}{2}
\beamer@subsectionintoc {2}{1}{An\IeC {\'a}lise}{8}{0}{2}
\beamer@subsectionintoc {2}{2}{Projeto}{13}{0}{2}
\beamer@subsectionintoc {2}{3}{Codifica\IeC {\c c}\IeC {\~a}o}{17}{0}{2}
\beamer@subsectionintoc {2}{4}{Testes}{21}{0}{2}
\beamer@sectionintoc {3}{Demonstra\IeC {\c c}\IeC {\~a}o do Produto}{28}{0}{3}
\beamer@sectionintoc {4}{Considera\IeC {\c c}\IeC {\~o}es Finais}{30}{0}{4}
