\relax 
\providecommand\hyper@newdestlabel[2]{}
\providecommand\HyperFirstAtBeginDocument{\AtBeginDocument}
\HyperFirstAtBeginDocument{\ifx\hyper@anchor\@undefined
\global\let\oldcontentsline\contentsline
\gdef\contentsline#1#2#3#4{\oldcontentsline{#1}{#2}{#3}}
\global\let\oldnewlabel\newlabel
\gdef\newlabel#1#2{\newlabelxx{#1}#2}
\gdef\newlabelxx#1#2#3#4#5#6{\oldnewlabel{#1}{{#2}{#3}}}
\AtEndDocument{\ifx\hyper@anchor\@undefined
\let\contentsline\oldcontentsline
\let\newlabel\oldnewlabel
\fi}
\fi}
\global\let\hyper@last\relax 
\gdef\HyperFirstAtBeginDocument#1{#1}
\providecommand\HyField@AuxAddToFields[1]{}
\providecommand\HyField@AuxAddToCoFields[2]{}
\catcode `"\active 
\@writefile{toc}{\beamer@endinputifotherversion {3.33pt}}
\@writefile{nav}{\beamer@endinputifotherversion {3.33pt}}
\select@language{brazilian}
\@writefile{toc}{\select@language{brazilian}}
\@writefile{lof}{\select@language{brazilian}}
\@writefile{lot}{\select@language{brazilian}}
\@writefile{nav}{\headcommand {\slideentry {0}{0}{1}{1/1}{}{0}}}
\@writefile{nav}{\headcommand {\beamer@framepages {1}{1}}}
\@writefile{nav}{\headcommand {\slideentry {0}{0}{2}{2/2}{}{0}}}
\@writefile{nav}{\headcommand {\beamer@framepages {2}{2}}}
\@writefile{toc}{\beamer@sectionintoc {1}{Introdu\IeC {\c c}\IeC {\~a}o}{3}{0}{1}}
\@writefile{nav}{\headcommand {\sectionentry {1}{Introdu\IeC {\c c}\IeC {\~a}o}{3}{Introdu\IeC {\c c}\IeC {\~a}o}{0}}}
\@writefile{nav}{\headcommand {\beamer@sectionpages {1}{2}}}
\@writefile{nav}{\headcommand {\beamer@subsectionpages {1}{2}}}
\@writefile{nav}{\headcommand {\slideentry {1}{0}{3}{3/3}{}{0}}}
\@writefile{nav}{\headcommand {\beamer@framepages {3}{3}}}
\@writefile{nav}{\headcommand {\slideentry {1}{0}{4}{4/4}{}{0}}}
\@writefile{nav}{\headcommand {\beamer@framepages {4}{4}}}
\@writefile{nav}{\headcommand {\slideentry {1}{0}{5}{5/5}{}{0}}}
\@writefile{nav}{\headcommand {\beamer@framepages {5}{5}}}
\@writefile{toc}{\beamer@sectionintoc {2}{Atividades Desenvolvidas}{6}{0}{2}}
\@writefile{nav}{\headcommand {\sectionentry {2}{Atividades Desenvolvidas}{6}{Atividades Desenvolvidas}{0}}}
\@writefile{nav}{\headcommand {\beamer@sectionpages {3}{5}}}
\@writefile{nav}{\headcommand {\beamer@subsectionpages {3}{5}}}
\@writefile{nav}{\headcommand {\slideentry {2}{0}{6}{6/6}{}{0}}}
\@writefile{nav}{\headcommand {\beamer@framepages {6}{6}}}
\@writefile{nav}{\headcommand {\slideentry {2}{0}{7}{7/7}{}{0}}}
\@writefile{nav}{\headcommand {\beamer@framepages {7}{7}}}
\@writefile{toc}{\beamer@subsectionintoc {2}{1}{An\IeC {\'a}lise}{8}{0}{2}}
\@writefile{nav}{\headcommand {\beamer@subsectionentry {0}{2}{1}{8}{An\IeC {\'a}lise}}\headcommand {\beamer@subsectionpages {6}{7}}}
\@writefile{nav}{\headcommand {\slideentry {2}{1}{1}{8/8}{An\IeC {\'a}lise}{0}}}
\@writefile{nav}{\headcommand {\beamer@framepages {8}{8}}}
\@writefile{nav}{\headcommand {\slideentry {2}{1}{2}{9/9}{An\IeC {\'a}lise}{0}}}
\@writefile{nav}{\headcommand {\beamer@framepages {9}{9}}}
\@writefile{nav}{\headcommand {\slideentry {2}{1}{3}{10/10}{An\IeC {\'a}lise}{0}}}
\@writefile{nav}{\headcommand {\beamer@framepages {10}{10}}}
\@writefile{nav}{\headcommand {\slideentry {2}{1}{4}{11/11}{An\IeC {\'a}lise}{0}}}
\@writefile{nav}{\headcommand {\beamer@framepages {11}{11}}}
\@writefile{nav}{\headcommand {\slideentry {2}{1}{5}{12/12}{An\IeC {\'a}lise}{0}}}
\@writefile{nav}{\headcommand {\beamer@framepages {12}{12}}}
\@writefile{toc}{\beamer@subsectionintoc {2}{2}{Projeto}{13}{0}{2}}
\@writefile{nav}{\headcommand {\beamer@subsectionentry {0}{2}{2}{13}{Projeto}}\headcommand {\beamer@subsectionpages {8}{12}}}
\@writefile{nav}{\headcommand {\slideentry {2}{2}{1}{13/13}{Projeto}{0}}}
\@writefile{nav}{\headcommand {\beamer@framepages {13}{13}}}
\@writefile{nav}{\headcommand {\slideentry {2}{2}{2}{14/14}{Projeto}{0}}}
\@writefile{nav}{\headcommand {\beamer@framepages {14}{14}}}
\@writefile{nav}{\headcommand {\slideentry {2}{2}{3}{15/15}{Projeto}{0}}}
\@writefile{nav}{\headcommand {\beamer@framepages {15}{15}}}
\@writefile{nav}{\headcommand {\slideentry {2}{2}{4}{16/16}{Projeto}{0}}}
\@writefile{nav}{\headcommand {\beamer@framepages {16}{16}}}
\@writefile{toc}{\beamer@subsectionintoc {2}{3}{Codifica\IeC {\c c}\IeC {\~a}o}{17}{0}{2}}
\@writefile{nav}{\headcommand {\beamer@subsectionentry {0}{2}{3}{17}{Codifica\IeC {\c c}\IeC {\~a}o}}\headcommand {\beamer@subsectionpages {13}{16}}}
\@writefile{nav}{\headcommand {\slideentry {2}{3}{1}{17/17}{Codifica\IeC {\c c}\IeC {\~a}o}{0}}}
\@writefile{nav}{\headcommand {\beamer@framepages {17}{17}}}
\@writefile{nav}{\headcommand {\slideentry {2}{3}{2}{18/18}{Codifica\IeC {\c c}\IeC {\~a}o}{0}}}
\@writefile{nav}{\headcommand {\beamer@framepages {18}{18}}}
\@writefile{nav}{\headcommand {\slideentry {2}{3}{3}{19/19}{Codifica\IeC {\c c}\IeC {\~a}o}{0}}}
\@writefile{nav}{\headcommand {\beamer@framepages {19}{19}}}
\@writefile{nav}{\headcommand {\slideentry {2}{3}{4}{20/20}{Codifica\IeC {\c c}\IeC {\~a}o}{0}}}
\@writefile{nav}{\headcommand {\beamer@framepages {20}{20}}}
\@writefile{toc}{\beamer@subsectionintoc {2}{4}{Testes}{21}{0}{2}}
\@writefile{nav}{\headcommand {\beamer@subsectionentry {0}{2}{4}{21}{Testes}}\headcommand {\beamer@subsectionpages {17}{20}}}
\@writefile{nav}{\headcommand {\slideentry {2}{4}{1}{21/21}{Testes}{0}}}
\@writefile{nav}{\headcommand {\beamer@framepages {21}{21}}}
\@writefile{nav}{\headcommand {\slideentry {2}{4}{2}{22/22}{Testes}{0}}}
\@writefile{nav}{\headcommand {\beamer@framepages {22}{22}}}
\@writefile{nav}{\headcommand {\slideentry {2}{4}{3}{23/23}{Testes}{0}}}
\@writefile{nav}{\headcommand {\beamer@framepages {23}{23}}}
\@writefile{nav}{\headcommand {\slideentry {2}{4}{4}{24/24}{Testes}{0}}}
\@writefile{nav}{\headcommand {\beamer@framepages {24}{24}}}
\@writefile{nav}{\headcommand {\slideentry {2}{4}{5}{25/25}{Testes}{0}}}
\@writefile{nav}{\headcommand {\beamer@framepages {25}{25}}}
\@writefile{nav}{\headcommand {\slideentry {2}{4}{6}{26/26}{Testes}{0}}}
\@writefile{nav}{\headcommand {\beamer@framepages {26}{26}}}
\@writefile{nav}{\headcommand {\slideentry {2}{4}{7}{27/27}{Testes}{0}}}
\@writefile{nav}{\headcommand {\beamer@framepages {27}{27}}}
\@writefile{toc}{\beamer@sectionintoc {3}{Demonstra\IeC {\c c}\IeC {\~a}o do Produto}{28}{0}{3}}
\@writefile{nav}{\headcommand {\sectionentry {3}{Demonstra\IeC {\c c}\IeC {\~a}o do Produto}{28}{Demonstra\IeC {\c c}\IeC {\~a}o do Produto}{0}}}
\@writefile{nav}{\headcommand {\beamer@sectionpages {6}{27}}}
\@writefile{nav}{\headcommand {\beamer@subsectionpages {21}{27}}}
\@writefile{nav}{\headcommand {\slideentry {3}{0}{8}{28/28}{}{0}}}
\@writefile{nav}{\headcommand {\beamer@framepages {28}{28}}}
\@writefile{nav}{\headcommand {\slideentry {3}{0}{9}{29/29}{}{0}}}
\@writefile{nav}{\headcommand {\beamer@framepages {29}{29}}}
\@writefile{toc}{\beamer@sectionintoc {4}{Considera\IeC {\c c}\IeC {\~o}es Finais}{30}{0}{4}}
\@writefile{nav}{\headcommand {\sectionentry {4}{Considera\IeC {\c c}\IeC {\~o}es Finais}{30}{Considera\IeC {\c c}\IeC {\~o}es Finais}{0}}}
\@writefile{nav}{\headcommand {\beamer@sectionpages {28}{29}}}
\@writefile{nav}{\headcommand {\beamer@subsectionpages {28}{29}}}
\@writefile{nav}{\headcommand {\slideentry {4}{0}{10}{30/30}{}{0}}}
\@writefile{nav}{\headcommand {\beamer@framepages {30}{30}}}
\@writefile{nav}{\headcommand {\slideentry {4}{0}{11}{31/31}{}{0}}}
\@writefile{nav}{\headcommand {\beamer@framepages {31}{31}}}
\@writefile{nav}{\headcommand {\slideentry {4}{0}{12}{32/32}{}{0}}}
\@writefile{nav}{\headcommand {\beamer@framepages {32}{32}}}
\@writefile{nav}{\headcommand {\beamer@partpages {1}{32}}}
\@writefile{nav}{\headcommand {\beamer@subsectionpages {30}{32}}}
\@writefile{nav}{\headcommand {\beamer@sectionpages {30}{32}}}
\@writefile{nav}{\headcommand {\beamer@documentpages {32}}}
\@writefile{nav}{\headcommand {\def \inserttotalframenumber {32}}}
