\relax 
\providecommand\hyper@newdestlabel[2]{}
\providecommand\BKM@entry[2]{}
\providecommand\zref@newlabel[2]{}
\providecommand*{\memsetcounter}[2]{}
\providecommand\HyperFirstAtBeginDocument{\AtBeginDocument}
\HyperFirstAtBeginDocument{\ifx\hyper@anchor\@undefined
\global\let\oldcontentsline\contentsline
\gdef\contentsline#1#2#3#4{\oldcontentsline{#1}{#2}{#3}}
\global\let\oldnewlabel\newlabel
\gdef\newlabel#1#2{\newlabelxx{#1}#2}
\gdef\newlabelxx#1#2#3#4#5#6{\oldnewlabel{#1}{{#2}{#3}}}
\AtEndDocument{\ifx\hyper@anchor\@undefined
\let\contentsline\oldcontentsline
\let\newlabel\oldnewlabel
\fi}
\fi}
\global\let\hyper@last\relax 
\gdef\HyperFirstAtBeginDocument#1{#1}
\providecommand\HyField@AuxAddToFields[1]{}
\providecommand\HyField@AuxAddToCoFields[2]{}
\catcode `"\active 
\citation{abnt-url-package=url}
\providecommand\acro@used@once[4]{}
\providecommand\acro@used@twice[4]{}
\providecommand\acro@pages[2]{}
\@writefile{toc}{\changetocdepth  {4}}
\select@language{brazil}
\@writefile{toc}{\select@language{brazil}}
\@writefile{lof}{\select@language{brazil}}
\@writefile{lot}{\select@language{brazil}}
\BKM@entry{id=1,dest={6368617074657262312E30},srcline={14}}{466F6C6861206465206170726F76615C3334375C3334336F}
\BKM@entry{id=2,dest={6368617074657262322E30},srcline={2}}{526573756D6F}
\BKM@entry{id=3,dest={6C6F662E30},srcline={291}}{4C6973746120646520696C75737472615C3334375C3336356573}
\citation{aoki:75}
\citation{abnt:84}
\citation{decourt75}
\citation{decourt75}
\@writefile{toc}{\setlength  {\cftchapterindent }{\cftlastnumwidth } \setlength  {\cftchapternumwidth }{2em}}
\@writefile{brf}{\backcite{aoki:75}{{5}{(document)}{Doc-Start}}}
\@writefile{brf}{\backcite{abnt:84}{{5}{(document)}{Doc-Start}}}
\@writefile{brf}{\backcite{decourt75}{{5}{(document)}{Doc-Start}}}
\@writefile{brf}{\backcite{decourt75}{{5}{(document)}{Doc-Start}}}
\BKM@entry{id=4,dest={6C6F742E30},srcline={296}}{4C6973746120646520746162656C6173}
\@writefile{toc}{\setlength  {\cftchapterindent }{\cftlastnumwidth } \setlength  {\cftchapternumwidth }{2em}}
\BKM@entry{id=5,dest={6C6F612E30},srcline={308}}{4C69737461206465207369676C6173}
\acro@print@list
\@writefile{toc}{\setlength  {\cftchapterindent }{\cftlastnumwidth } \setlength  {\cftchapternumwidth }{2em}}
\BKM@entry{id=6,dest={6C6F732E30},srcline={314}}{4C6973746120646520735C3335356D626F6C6F73}
\BKM@entry{id=7,dest={746F632E30},srcline={322}}{53756D5C33343172696F}
\@writefile{toc}{\setlength  {\cftchapterindent }{\cftlastnumwidth } \setlength  {\cftchapternumwidth }{2em}}
\BKM@entry{id=8,dest={636861707465722E31},srcline={2}}{496E74726F64755C3334375C3334336F}
\BKM@entry{id=9,dest={73656374696F6E2E312E31},srcline={9}}{506172746520436F6E636564656E7465}
\BKM@entry{id=10,dest={73656374696F6E2E312E32},srcline={17}}{4F7267616E697A615C3334375C3334336F20646F2054726162616C686F}
\@writefile{toc}{\setlength  {\cftchapterindent }{0em} \setlength  {\cftchapternumwidth }{\cftlastnumwidth }}
\@writefile{toc}{\contentsline {chapter}{\chapternumberline {1}\MakeTextUppercase  {Introdu\IeC {\c c}\IeC {\~a}o}}{13}{chapter.1}}
\newlabel{introducao}{{1}{13}{Introdução}{chapter.1}{}}
\@writefile{toc}{\contentsline {section}{\numberline {1.1}Parte Concedente}{13}{section.1.1}}
\newlabel{unidadeConcedenteDeEstagio}{{1.1}{13}{Parte Concedente}{section.1.1}{}}
\acro@used@once{maec}{13}{13}{15}
\@@wrindexm@m{monografia}{maec@{MAEC}|hyperpage}{13}
\acro@used@twice{maec}{13}{13}{15}
\@@wrindexm@m{monografia}{maec@{MAEC}|hyperpage}{13}
\@writefile{toc}{\contentsline {section}{\numberline {1.2}Organiza\IeC {\c c}\IeC {\~a}o do Trabalho}{13}{section.1.2}}
\newlabel{sec:divisoes}{{1.2}{13}{Organização do Trabalho}{section.1.2}{}}
\BKM@entry{id=11,dest={636861707465722E32},srcline={2}}{4174697669646164657320446573656E766F6C7669646173}
\BKM@entry{id=12,dest={73656374696F6E2E322E31},srcline={15}}{416E5C3334316C697365}
\@writefile{toc}{\setlength  {\cftchapterindent }{0em} \setlength  {\cftchapternumwidth }{\cftlastnumwidth }}
\@writefile{toc}{\contentsline {chapter}{\chapternumberline {2}\MakeTextUppercase  {Atividades Desenvolvidas}}{15}{chapter.2}}
\newlabel{desenvolvimento}{{2}{15}{Atividades Desenvolvidas}{chapter.2}{}}
\@writefile{toc}{\contentsline {section}{\numberline {2.1}An\IeC {\'a}lise}{15}{section.2.1}}
\citation{decourt78}
\@writefile{lof}{\contentsline {figure}{\numberline {1}{\ignorespaces Question\IeC {\'a}rio Web para a Elicita\IeC {\c c}\IeC {\~a}o Inicial de Requisitos.}}{16}{figure.2.1}}
\newlabel{fig:exampleQuestionario}{{1}{16}{Questionário Web para a Elicitação Inicial de Requisitos}{figure.2.1}{}}
\@writefile{brf}{\backcite{decourt78}{{16}{2.1}{figure.2.2}}}
\@writefile{lof}{\contentsline {figure}{\numberline {2}{\ignorespaces Modelo de Dom\IeC {\'\i }nio.}}{17}{figure.2.2}}
\newlabel{fig:modeloDeDominio}{{2}{17}{Modelo de Domínio}{figure.2.2}{}}
\@writefile{lof}{\contentsline {figure}{\numberline {3}{\ignorespaces Prot\IeC {\'o}tipo da Tela Profundidade Profunda.}}{18}{figure.2.3}}
\newlabel{fig:examplePrototipo}{{3}{18}{Protótipo da Tela Profundidade Profunda}{figure.2.3}{}}
\@writefile{lof}{\contentsline {figure}{\numberline {4}{\ignorespaces Diagrama de Caso de Uso - M\IeC {\'o}dulo Capacidade de Carga.}}{18}{figure.2.4}}
\newlabel{fig:usecase1}{{4}{18}{Diagrama de Caso de Uso - Módulo Capacidade de Carga}{figure.2.4}{}}
\citation{aoki:75}
\citation{aoki:75}
\@writefile{lof}{\contentsline {figure}{\numberline {5}{\ignorespaces Diagrama de Caso de Uso - M\IeC {\'o}dulo Qualitativo.}}{19}{figure.2.5}}
\newlabel{fig:usecase2}{{5}{19}{Diagrama de Caso de Uso - Módulo Qualitativo}{figure.2.5}{}}
\citation{abnt:84}
\citation{abnt:84}
\citation{decourt75}
\citation{decourt75}
\@writefile{lof}{\contentsline {figure}{\numberline {6}{\ignorespaces C\IeC {\'a}lculo de Resist\IeC {\^e}ncia de Ponta - Aoli-Velloso~\cite  {aoki:75}.}}{20}{figure.2.6}}
\@writefile{brf}{\backcite{aoki:75}{{20}{6}{figure.2.6}}}
\newlabel{fig:calcPontaAoki}{{6}{20}{Cálculo de Resistência de Ponta - Aoli-Velloso~\cite {aoki:75}}{figure.2.6}{}}
\@writefile{lof}{\contentsline {figure}{\numberline {7}{\ignorespaces C\IeC {\'a}lculo de Resist\IeC {\^e}ncia Lateral - Aoki-Velloso~\cite  {abnt:84}.}}{20}{figure.2.7}}
\@writefile{brf}{\backcite{abnt:84}{{20}{7}{figure.2.7}}}
\newlabel{fig:calcAtritoAoki}{{7}{20}{Cálculo de Resistência Lateral - Aoki-Velloso~\cite {abnt:84}}{figure.2.7}{}}
\@writefile{lof}{\contentsline {figure}{\numberline {8}{\ignorespaces C\IeC {\'a}lculo de Resist\IeC {\^e}ncia de Ponta - D\IeC {\'e}court-Quaresma~\cite  {decourt75}.}}{20}{figure.2.8}}
\@writefile{brf}{\backcite{decourt75}{{20}{8}{figure.2.8}}}
\newlabel{fig:calcPontaDecourt}{{8}{20}{Cálculo de Resistência de Ponta - Décourt-Quaresma~\cite {decourt75}}{figure.2.8}{}}
\citation{decourt75}
\citation{decourt75}
\BKM@entry{id=13,dest={73656374696F6E2E322E32},srcline={239}}{50726F6A65746F}
\@writefile{lof}{\contentsline {figure}{\numberline {9}{\ignorespaces C\IeC {\'a}lculo de Resist\IeC {\^e}ncia Lateral - D\IeC {\'e}court-Quaresma~\cite  {decourt75}.}}{21}{figure.2.9}}
\@writefile{brf}{\backcite{decourt75}{{21}{9}{figure.2.9}}}
\newlabel{fig:calcAtritoDecourt}{{9}{21}{Cálculo de Resistência Lateral - Décourt-Quaresma~\cite {decourt75}}{figure.2.9}{}}
\@writefile{lot}{\contentsline {table}{\numberline {1}{\ignorespaces Valores dos coeficientes k e $\alpha $}}{22}{table.2.1}}
\newlabel{tab:tipoSolo}{{1}{22}{Valores dos coeficientes k e $\alpha $}{table.2.1}{}}
\@writefile{lot}{\contentsline {table}{\numberline {2}{\ignorespaces Valores dos coeficientes K para o M\IeC {\'e}todo de D\IeC {\'e}court-Quaresma}}{22}{table.2.2}}
\newlabel{tab:tipoSoloPorK}{{2}{22}{Valores dos coeficientes K para o Método de Décourt-Quaresma}{table.2.2}{}}
\@writefile{lot}{\contentsline {table}{\numberline {3}{\ignorespaces Valores dos coeficientes $F_1$ e $F_2$}}{22}{table.2.3}}
\newlabel{tab:tipoEstacaF1F2}{{3}{22}{Valores dos coeficientes $F_1$ e $F_2$}{table.2.3}{}}
\@writefile{toc}{\contentsline {section}{\numberline {2.2}Projeto}{22}{section.2.2}}
\citation{larman2001patterns}
\@writefile{lot}{\contentsline {table}{\numberline {4}{\ignorespaces Valores de $\alpha $ e $\beta $ para o M\IeC {\'e}todo D\IeC {\'e}court-Quaresma}}{23}{table.2.4}}
\newlabel{tab:estacaPoralfaBEta}{{4}{23}{Valores de $\alpha $ e $\beta $ para o Método Décourt-Quaresma}{table.2.4}{}}
\@writefile{lof}{\contentsline {figure}{\numberline {10}{\ignorespaces Fluxo de Atividades Realizadas no Sistema pelo Usu\IeC {\'a}rio.}}{23}{figure.2.10}}
\newlabel{fig:FluxoDeAtividadesSisFundacoes}{{10}{23}{Fluxo de Atividades Realizadas no Sistema pelo Usuário}{figure.2.10}{}}
\acro@used@once{mvc}{23}{23}{25}
\@@wrindexm@m{monografia}{mvc@{MVC}|hyperpage}{23}
\acro@used@twice{mvc}{23}{23}{25}
\@@wrindexm@m{monografia}{mvc@{MVC}|hyperpage}{23}
\@writefile{lof}{\contentsline {figure}{\numberline {11}{\ignorespaces Arquitetura Utilizada.}}{24}{figure.2.11}}
\newlabel{fig:DiagramaClasse_arquitetura}{{11}{24}{Arquitetura Utilizada}{figure.2.11}{}}
\@writefile{brf}{\backcite{larman2001patterns}{{24}{3}{Hfootnote.3}}}
\@writefile{lof}{\contentsline {figure}{\numberline {12}{\ignorespaces Diagrama de Classe do N\IeC {\'\i }vel Arquitetural de Modelo - Parte Focada em Terreno e Ensaio.}}{25}{figure.2.12}}
\newlabel{fig:diagramaDeClasseTereno}{{12}{25}{Diagrama de Classe do Nível Arquitetural de Modelo - Parte Focada em Terreno e Ensaio}{figure.2.12}{}}
\BKM@entry{id=14,dest={73656374696F6E2E322E33},srcline={283}}{436F6469666963615C3334375C3334336F}
\@writefile{lof}{\contentsline {figure}{\numberline {13}{\ignorespaces Diagrama de Classe do N\IeC {\'\i }vel Arquitetural de Modelo - Parte Focada em Projeto.}}{26}{figure.2.13}}
\newlabel{fig:diagramaDeClasseProjeto}{{13}{26}{Diagrama de Classe do Nível Arquitetural de Modelo - Parte Focada em Projeto}{figure.2.13}{}}
\@writefile{lof}{\contentsline {figure}{\numberline {14}{\ignorespaces Diagrama de Classe do N\IeC {\'\i }vel Arquitetural de Modelo - Parte Focada em Engenheiro Civil.}}{26}{figure.2.14}}
\newlabel{fig:diagramaDeClasseEngenheiroCivil}{{14}{26}{Diagrama de Classe do Nível Arquitetural de Modelo - Parte Focada em Engenheiro Civil}{figure.2.14}{}}
\@writefile{toc}{\contentsline {section}{\numberline {2.3}Codifica\IeC {\c c}\IeC {\~a}o}{26}{section.2.3}}
\BKM@entry{id=15,dest={73656374696F6E2E322E34},srcline={443}}{546573746573}
\@writefile{lof}{\contentsline {figure}{\numberline {15}{\ignorespaces Tela Escolha de Solo.}}{31}{figure.2.15}}
\newlabel{fig:interfaceGmodCapacidadeDeCarga3}{{15}{31}{Tela Escolha de Solo}{figure.2.15}{}}
\@writefile{lof}{\contentsline {figure}{\numberline {16}{\ignorespaces Tela Utilizada para Importa\IeC {\c c}\IeC {\~a}o de Planilhas Excel.}}{31}{figure.2.16}}
\newlabel{fig:interfaceGtelaImportacao}{{16}{31}{Tela Utilizada para Importação de Planilhas Excel}{figure.2.16}{}}
\@writefile{toc}{\contentsline {section}{\numberline {2.4}Testes}{31}{section.2.4}}
\@writefile{lof}{\contentsline {figure}{\numberline {17}{\ignorespaces Testes Realizados na Classe Engenheiro Civil.}}{32}{figure.2.17}}
\newlabel{fig:testeUnitario1}{{17}{32}{Testes Realizados na Classe Engenheiro Civil}{figure.2.17}{}}
\@writefile{lof}{\contentsline {figure}{\numberline {18}{\ignorespaces Testes Realizados na Classe Estaca.}}{33}{figure.2.18}}
\newlabel{fig:testeUnitario2}{{18}{33}{Testes Realizados na Classe Estaca}{figure.2.18}{}}
\@writefile{lof}{\contentsline {figure}{\numberline {19}{\ignorespaces Testes Realizados para o M\IeC {\'e}todo Aoki-Velloso.}}{33}{figure.2.19}}
\newlabel{fig:testesModuloCapacidadeDeCargaAoki}{{19}{33}{Testes Realizados para o Método Aoki-Velloso}{figure.2.19}{}}
\@writefile{lof}{\contentsline {figure}{\numberline {20}{\ignorespaces Testes Realizados para o M\IeC {\'e}todo D\IeC {\'e}court-Quaresma.}}{34}{figure.2.20}}
\newlabel{fig:testesModuloCapacidadeDeCargaDecourt}{{20}{34}{Testes Realizados para o Método Décourt-Quaresma}{figure.2.20}{}}
\@writefile{lof}{\contentsline {figure}{\numberline {21}{\ignorespaces Testes Realizados para o M\IeC {\'o}dulo Qualitativo.}}{34}{figure.2.21}}
\newlabel{fig:testesModuloQualitativo}{{21}{34}{Testes Realizados para o Módulo Qualitativo}{figure.2.21}{}}
\BKM@entry{id=16,dest={636861707465722E33},srcline={2}}{436F6E7369646572615C3334375C33363565732046696E616973}
\BKM@entry{id=17,dest={73656374696F6E2E332E31},srcline={17}}{4C695C3334375C333635657320417072656E6469646173}
\@writefile{toc}{\setlength  {\cftchapterindent }{0em} \setlength  {\cftchapternumwidth }{\cftlastnumwidth }}
\@writefile{toc}{\contentsline {chapter}{\chapternumberline {3}\MakeTextUppercase  {Considera\IeC {\c c}\IeC {\~o}es Finais}}{37}{chapter.3}}
\newlabel{conclusao}{{3}{37}{Considerações Finais}{chapter.3}{}}
\@writefile{toc}{\contentsline {section}{\numberline {3.1}Li\IeC {\c c}\IeC {\~o}es Aprendidas}{37}{section.3.1}}
\newlabel{licoesAprendidas}{{3.1}{37}{Lições Aprendidas}{section.3.1}{}}
\bibdata{abntex2-options,bibliografia,abntex2-modelo-references}
\@writefile{toc}{\vspace  {\cftbeforechapterskip }}
\BKM@entry{id=18,dest={73656374696F6E2A2E36},srcline={3}}{52656665725C3335326E63696173}
\bibcite{abnt:84}{(ABNT) 1984}
\bibciteEXPL{abnt:84}{(ABNT)}
\bibciteIMPL{abnt:84}{(ABNT)}
\bibciteYEAR{abnt:84}{1984}
\bibcite{aoki:75}{Aoki e Velloso 1975}
\bibciteEXPL{aoki:75}{Aoki e Velloso}
\bibciteIMPL{aoki:75}{AOKI; VELLOSO}
\bibciteYEAR{aoki:75}{1975}
\bibcite{decourt78}{D\IeC {\'e}court e Quaresma 1978}
\bibciteEXPL{decourt78}{D\IeC {\'e}court e Quaresma}
\bibciteIMPL{decourt78}{D\IeC {\'e}COURT; QUARESMA}
\bibciteYEAR{decourt78}{1978a}
\bibcite{decourt75}{D\IeC {\'e}court e Quaresma 1978}
\bibciteEXPL{decourt75}{D\IeC {\'e}court e Quaresma}
\bibciteIMPL{decourt75}{D\IeC {\'e}COURT; QUARESMA}
\bibciteYEAR{decourt75}{1978b}
\bibcite{larman2001patterns}{Larman e Applying 2001}
\bibciteEXPL{larman2001patterns}{Larman e Applying}
\bibciteIMPL{larman2001patterns}{LARMAN; APPLYING}
\bibciteYEAR{larman2001patterns}{2001}
\@writefile{toc}{\setlength  {\cftchapterindent }{\cftlastnumwidth } \setlength  {\cftchapternumwidth }{2em}}
\@writefile{toc}{\contentsline {chapter}{Refer\^encias}{39}{section*.6}}
\newlabel{LastPage}{{}{39}{}{page.39}{}}
\xdef\lastpage@lastpage{39}
\xdef\lastpage@lastpageHy{39}
\bibstyle{abntex2-alf}
\memsetcounter{lastsheet}{41}
\memsetcounter{lastpage}{39}
