\changetocdepth {4}
\select@language {brazil}
\setlength {\cftchapterindent }{\cftlastnumwidth } \setlength {\cftchapternumwidth }{2em}
\setlength {\cftchapterindent }{\cftlastnumwidth } \setlength {\cftchapternumwidth }{2em}
\setlength {\cftchapterindent }{\cftlastnumwidth } \setlength {\cftchapternumwidth }{2em}
\setlength {\cftchapterindent }{\cftlastnumwidth } \setlength {\cftchapternumwidth }{2em}
\setlength {\cftchapterindent }{0em} \setlength {\cftchapternumwidth }{\cftlastnumwidth }
\contentsline {chapter}{\chapternumberline {1}\MakeTextUppercase {Introdu\IeC {\c c}\IeC {\~a}o}}{13}{chapter.1}
\contentsline {section}{\numberline {1.1}Parte Concedente}{13}{section.1.1}
\contentsline {section}{\numberline {1.2}Organiza\IeC {\c c}\IeC {\~a}o do Trabalho}{13}{section.1.2}
\setlength {\cftchapterindent }{0em} \setlength {\cftchapternumwidth }{\cftlastnumwidth }
\contentsline {chapter}{\chapternumberline {2}\MakeTextUppercase {Atividades Desenvolvidas}}{15}{chapter.2}
\contentsline {section}{\numberline {2.1}An\IeC {\'a}lise}{15}{section.2.1}
\contentsline {section}{\numberline {2.2}Projeto}{22}{section.2.2}
\contentsline {section}{\numberline {2.3}Codifica\IeC {\c c}\IeC {\~a}o}{26}{section.2.3}
\contentsline {section}{\numberline {2.4}Testes}{31}{section.2.4}
\setlength {\cftchapterindent }{0em} \setlength {\cftchapternumwidth }{\cftlastnumwidth }
\contentsline {chapter}{\chapternumberline {3}\MakeTextUppercase {Considera\IeC {\c c}\IeC {\~o}es Finais}}{37}{chapter.3}
\contentsline {section}{\numberline {3.1}Li\IeC {\c c}\IeC {\~o}es Aprendidas}{37}{section.3.1}
\vspace {\cftbeforechapterskip }
\setlength {\cftchapterindent }{\cftlastnumwidth } \setlength {\cftchapternumwidth }{2em}
\contentsline {chapter}{Refer\^encias}{39}{section*.6}
